{
    "KPlugin": {
        "Description": "Default KDE Kontact Component",
        "Description[ar]": "مكوّن «متراسلك كِيدِي» المبدئيّ",
        "Description[az]": "Standart KDE Kontact tərkib hissələri",
        "Description[bg]": "Стандартна компонента на KDE Kontact",
        "Description[ca@valencia]": "Component predeterminat de Kontact de KDE",
        "Description[ca]": "Component predeterminat del Kontact de KDE",
        "Description[cs]": "Výchozí komponenta KDE Kontact",
        "Description[de]": "Standard-Komponente von Kontact",
        "Description[el]": "Προκαθορισμένο συστατικό του KDE Kontact",
        "Description[en_GB]": "Default KDE Kontact Component",
        "Description[eo]": "Defaŭlta Komponanto de KDE Kontact",
        "Description[es]": "Componente predeterminado de KDE Kontact",
        "Description[eu]": "KDE Kontact-en osagai lehenetsia",
        "Description[fi]": "Oletusarvoinen KDE Kontact -osa",
        "Description[fr]": "Composant de KDE par défaut pour Kontact",
        "Description[gl]": "Compoñente predeterminado de Kontact de KDE",
        "Description[ia]": "Componente standard de KDE Kontact",
        "Description[id]": "Komponen KDE Kontact Default",
        "Description[it]": "Componente predefinito di KDE Kontact",
        "Description[ka]": "KDE Kontact-ის ნაგულისხმები კომპონენტი",
        "Description[ko]": "기본 KDE Contact 구성 요소",
        "Description[nl]": "Standaard component van KDE Kontact",
        "Description[nn]": "Standard KDE Kontact-komponent",
        "Description[pl]": "Domyślny składnik KDE Kontact",
        "Description[pt]": "Componente do Kontact Predefinido do KDE",
        "Description[pt_BR]": "Componente padrão do KDE Kontact",
        "Description[ru]": "Компонент электронного секретаря по умолчанию",
        "Description[sk]": "Predvolený komponent KDE Kontact",
        "Description[sl]": "Privzeta komponenta KDE Kontacta",
        "Description[sv]": "KDE:s standardkomponent Kontact",
        "Description[tr]": "Öntanımlı KDE Contact Bileşeni",
        "Description[uk]": "Типовий компонент Kontact KDE",
        "Description[x-test]": "xxDefault KDE Kontact Componentxx",
        "Description[zh_TW]": "預設 KDE Kontact 元件",
        "Icon": "kontact",
        "Name": "Kontact Configuration",
        "Name[ar]": "ضبط «متراسلك»",
        "Name[az]": "Kontact ayarları",
        "Name[bg]": "Настройка на Kontact",
        "Name[ca@valencia]": "Configureu Kontact",
        "Name[ca]": "Configuració del Kontact",
        "Name[cs]": "Nastavení Kontact",
        "Name[de]": "Einrichtung von Kontact",
        "Name[el]": "Διαμόρφωση του Kontact",
        "Name[en_GB]": "Kontact Configuration",
        "Name[eo]": "Agordo de Kontact",
        "Name[es]": "Configuración de Kontact",
        "Name[eu]": "Kontact-en konfigurazioa",
        "Name[fi]": "Kontactin asetukset",
        "Name[fr]": "Configuration de Kontact",
        "Name[gl]": "Configuración de Kontact",
        "Name[ia]": "Configuration de Kontact",
        "Name[id]": "Konfigurasi Kontact",
        "Name[it]": "Configurazione di Kontact",
        "Name[ka]": "Kontact -ის მორგება",
        "Name[ko]": "Kontact 설정",
        "Name[nl]": "Configuratie van Kontact",
        "Name[nn]": "Kontact-oppsett",
        "Name[pl]": "Ustawienia Kontact",
        "Name[pt]": "Configuração do Kontact",
        "Name[pt_BR]": "Configuração do Kontact",
        "Name[ru]": "Настройка Kontact",
        "Name[sk]": "Nastavenie Kontakt",
        "Name[sl]": "Konfiguracija Kontacta",
        "Name[sv]": "Inställning av Kontact",
        "Name[tr]": "Kontak Yapılandırması",
        "Name[uk]": "Налаштування Kontact",
        "Name[x-test]": "xxKontact Configurationxx",
        "Name[zh_TW]": "Kontact 設定"
    },
    "X-KDE-Weight": 0
}
